{
  "paySwitch": true,
  "noticeSwitch": true,
  "noticeContents":"开通30天会员##开通季度会员##开通一年会员##开通超级会员",
  "announcements": "注意：\n1、请确保该数据为操作者本人所有，如用于非法目的操作者需承担相应的法律责任。\n2、购买会员后，在会员有效期内，可以在该手机上不限次数使用会员尊享功能。",
  "buy_agreement_url": "https://mtaapi.com/static/comm/gou_mai_xie_yi.html",
  "def_vip_index": 1,
  "cur_url": "",
  "vips": [{
    "name": "30天会员",
    "zfbRemark": "购买VIP(30天)",
    "tip": "",
    "oldPrice": 109.0,
    "curPirce": 39.0,
    "vipDays": 30,
    "description": "购买会员后，可以无限制使用会员尊享功能，会员有效期30天.",
    "userContact": ""
  }, {
    "name": "季度会员",
    "zfbRemark": "购买VIP(90天)",
    "tip": "",
    "oldPrice": 168.0,
    "curPirce": 78.0,
    "vipDays": 90,
    "description": "购买会员后，可以无限制使用会员尊享功能，会员有效期90天.",
    "userContact": ""
  }, {
    "name": "一年会员",
    "zfbRemark": "购买VIP(一年)",
    "tip": "",
    "oldPrice": 258.0,
    "curPirce": 99.0,
    "vipDays": 366,
    "description": "购买会员后，可以无限制使用会员尊享功能，会员有效期1年.",
    "userContact": ""
  }, {
    "name": "终身会员",
    "zfbRemark": "购买VIP(永久)",
    "tip": "",
    "oldPrice": 988.0,
    "curPirce": 299.0,
    "vipDays": 36600,
    "description": "购买会员后，可以无限制使用会员尊享功能，会员永久有效，不过期.",
    "userContact": ""
  }],
  "sysConfig": {},
  "appConfig": {
    "project": "MtaSDK",
    "guider_url": "",
    "user_list_url": "https://mtaapi.com/static/comm/comm_personal_info_list.html",
    "third_list_url": "https://mtaapi.com/static/comm/comm_info_share_list.html",
    "buy_agreement_url": "https://mtaapi.com/static/comm/gou_mai_xie_yi.html",
    "qq": "1283705915",
    "weixinSwitch": false,
    "weixin": "gopro123321",
    "end":""
  },
  "reserve": {},
  "reserveAry": [],
  "remark": {}
}